module gitlab.com/iotcl/aoc2023

go 1.20

require github.com/stretchr/testify v1.8.4

require (
	github.com/davecgh/go-spew v1.1.1 // indirect
	github.com/pmezard/go-difflib v1.0.0 // indirect
	github.com/samber/lo v1.38.1 // indirect
	golang.org/x/exp v0.0.0-20220303212507-bbda1eaf7a17 // indirect
	gopkg.in/yaml.v3 v3.0.1 // indirect
)
